{
  "name": "",
  "description": "",
  "spec": [
    {
      "question_name": "Which login will have the user",
      "question_description": "",
      "required": true,
      "type": "text",
      "variable": "user_login",
      "min": 0,
      "max": 1024,
      "default": "",
      "choices": "",
      "new_question": true
    },
    {
      "question_name": "Which password will have the user",
      "question_description": "",
      "required": true,
      "type": "password",
      "variable": "user_password",
      "min": 0,
      "max": 1024,
      "default": "",
      "choices": "",
      "new_question": true
    },
    {
      "question_name": "the admin password for awx",
      "question_description": "",
      "required": true,
      "type": "password",
      "variable": "admin_password",
      "min": 0,
      "max": 1024,
      "default": "",
      "choices": "",
      "new_question": true
    }
  ]
}
